施設ID,メールアドレス,施設名称,姓,名,〒,市区町村,番地・号,ビル名,経度,緯度,電話番号,営業時間-平日,営業時間-土日,営業時間-祝日,定休日-月曜日,定休日-火曜日,定休日-水曜日,定休日-木曜日,定休日-金曜日,定休日-土曜日,定休日-日曜日,定休日-祝日,定休日-Other,料金,会員・土日・祝日料金,登録施設カテゴリ - 男湯サウナ,登録施設カテゴリ - 館内全体,登録施設カテゴリ - 女湯サウナ,備考,Twitter,Instagram,Website,施設フィルター情報
,vmoimport0707.9999@gmail.com,vmoimport0707.9999,vmo,group 01,672-8064,東京都 日野市,東京都 日野市,東京都 日野市,21.02728615,105.8075721,1234567890,10:00 - 23:59,10:00 - 23:59,10:00 - 23:59,YES,YES,YES,YES,YES,YES,YES,YES,9/15,6000,"会員・2500""\n""土日・祝日料金 6000",YES,YES,YES,備考,https://www.instagram.com/,https://www.instagram.com/,,"男性あり;日帰りOK;フリータイム;ロウリュウ;レストラン;浴室内""\n""（シャンプー／ボディソープ 等）;現金"
,vmoimport0707.9998@gmail.com,vmoimport0707.9998,vmo,group 02,672-8064,東京都 日野市,東京都 日野市,東京都 日野市,21.02728615,105.8075721,1234567890,10:00 - 23:59,10:00 - 23:59,10:00 - 23:59,YES,YES,YES,YES,YES,YES,YES,YES,9/15,6000,"会員・2500""\n""土日・祝日料金 6000",YES,YES,YES,備考,https://www.instagram.com/,https://www.instagram.com/,,"男性あり;日帰りOK;フリータイム;ロウリュウ;レストラン;浴室内""\n""（シャンプー／ボディソープ 等）;現金"
,vmoimport0707.9997@gmail.com,vmoimport0707.9997,vmo,group 03,672-8064,東京都 日野市,東京都 日野市,東京都 日野市,21.02728615,105.8075721,1234567890,10:00 - 23:59,10:00 - 23:59,10:00 - 23:59,YES,YES,YES,YES,YES,YES,YES,YES,9/15,6000,"会員・2500""\n""土日・祝日料金 6000",YES,YES,YES,備考,https://www.instagram.com/,https://www.instagram.com/,,"男性あり;日帰りOK;フリータイム;ロウリュウ;レストラン;浴室内""\n""（シャンプー／ボディソープ 等）;現金"
,vmoimport0707.9996@gmail.com,vmoimport0707.9996,vmo,group 04,672-8064,東京都 日野市,東京都 日野市,東京都 日野市,21.02728615,105.8075721,1234567890,10:00 - 23:59,10:00 - 23:59,10:00 - 23:59,YES,YES,YES,YES,YES,YES,YES,YES,9/15,6000,"会員・2500""\n""土日・祝日料金 6000",YES,YES,YES,備考,https://www.instagram.com/,https://www.instagram.com/,,"男性あり;日帰りOK;フリータイム;ロウリュウ;レストラン;浴室内""\n""（シャンプー／ボディソープ 等）;現金"
,vmoimport0707.9995@gmail.com,vmoimport0707.9995,vmo,group 05,672-8064,東京都 日野市,東京都 日野市,東京都 日野市,21.02728615,105.8075721,1234567890,10:00 - 23:59,10:00 - 23:59,10:00 - 23:59,YES,YES,YES,YES,YES,YES,YES,YES,9/15,6000,"会員・2500""\n""土日・祝日料金 6000",YES,YES,YES,備考,https://www.instagram.com/,https://www.instagram.com/,,"男性あり;日帰りOK;フリータイム;ロウリュウ;レストラン;浴室内""\n""（シャンプー／ボディソープ 等）;現金"
,vmoimport0707.9994@gmail.com,vmoimport0707.9994,vmo,group 06,672-8064,東京都 日野市,東京都 日野市,東京都 日野市,21.02728615,105.8075721,1234567890,10:00 - 23:59,10:00 - 23:59,10:00 - 23:59,YES,YES,YES,YES,YES,YES,YES,YES,9/15,6000,"会員・2500""\n""土日・祝日料金 6000",YES,YES,YES,備考,https://www.instagram.com/,https://www.instagram.com/,,"男性あり;日帰りOK;フリータイム;ロウリュウ;レストラン;浴室内""\n""（シャンプー／ボディソープ 等）;現金"
,vmoimport0707.9993@gmail.com,vmoimport0707.9993,vmo,group 07,672-8064,東京都 日野市,東京都 日野市,東京都 日野市,21.02728615,105.8075721,1234567890,10:00 - 23:59,10:00 - 23:59,10:00 - 23:59,YES,YES,YES,YES,YES,YES,YES,YES,9/15,6000,"会員・2500""\n""土日・祝日料金 6000",YES,YES,YES,備考,https://www.instagram.com/,https://www.instagram.com/,,"男性あり;日帰りOK;フリータイム;ロウリュウ;レストラン;浴室内""\n""（シャンプー／ボディソープ 等）;現金"
,vmoimport0707.9992@gmail.com,vmoimport0707.9992,vmo,group 08,672-8064,東京都 日野市,東京都 日野市,東京都 日野市,21.02728615,105.8075721,1234567890,10:00 - 23:59,10:00 - 23:59,10:00 - 23:59,YES,YES,YES,YES,YES,YES,YES,YES,9/15,6000,"会員・2500""\n""土日・祝日料金 6000",YES,YES,YES,備考,https://www.instagram.com/,https://www.instagram.com/,,"男性あり;日帰りOK;フリータイム;ロウリュウ;レストラン;浴室内""\n""（シャンプー／ボディソープ 等）;現金"
,vmoimport0707.9991@gmail.com,vmoimport0707.9991,vmo,group 09,672-8064,東京都 日野市,東京都 日野市,東京都 日野市,21.02728615,105.8075721,1234567890,10:00 - 23:59,10:00 - 23:59,10:00 - 23:59,YES,YES,YES,YES,YES,YES,YES,YES,9/15,6000,"会員・2500""\n""土日・祝日料金 6000",YES,YES,YES,備考,https://www.instagram.com/,https://www.instagram.com/,,"男性あり;日帰りOK;フリータイム;ロウリュウ;レストラン;浴室内""\n""（シャンプー／ボディソープ 等）;現金"
,vmoimport0707.9990@gmail.com,vmoimport0707.9990,vmo,group 10,672-8064,東京都 日野市,東京都 日野市,東京都 日野市,21.02728615,105.8075721,1234567890,10:00 - 23:59,10:00 - 23:59,10:00 - 23:59,YES,YES,YES,YES,YES,YES,YES,YES,9/15,6000,"会員・2500""\n""土日・祝日料金 6000",YES,YES,YES,備考,https://www.instagram.com/,https://www.instagram.com/,,"男性あり;日帰りOK;フリータイム;ロウリュウ;レストラン;浴室内""\n""（シャンプー／ボディソープ 等）;現金"
,vmoimport0707.9989@gmail.com,vmoimport0707.9989,vmo,group 11,672-8064,東京都 日野市,東京都 日野市,東京都 日野市,21.02728615,105.8075721,1234567890,10:00 - 23:59,10:00 - 23:59,10:00 - 23:59,YES,YES,YES,YES,YES,YES,YES,YES,9/15,6000,"会員・2500""\n""土日・祝日料金 6000",YES,YES,YES,備考,https://www.instagram.com/,https://www.instagram.com/,,"男性あり;日帰りOK;フリータイム;ロウリュウ;レストラン;浴室内""\n""（シャンプー／ボディソープ 等）;現金"
,vmoimport0707.9987@gmail.com,vmoimport0707.9988,vmo,group 12,672-8064,東京都 日野市,東京都 日野市,東京都 日野市,21.02728615,105.8075721,1234567890,10:00 - 23:59,10:00 - 23:59,10:00 - 23:59,YES,YES,YES,YES,YES,YES,YES,YES,9/15,6000,"会員・2500""\n""土日・祝日料金 6000",YES,YES,YES,備考,https://www.instagram.com/,https://www.instagram.com/,,"男性あり;日帰りOK;フリータイム;ロウリュウ;レストラン;浴室内""\n""（シャンプー／ボディソープ 等）;現金"
,vmoimport0707.9986@gmail.com,vmoimport0707.9987,vmo,group 13,672-8064,東京都 日野市,東京都 日野市,東京都 日野市,21.02728615,105.8075721,1234567890,10:00 - 23:59,10:00 - 23:59,10:00 - 23:59,YES,YES,YES,YES,YES,YES,YES,YES,9/15,6000,"会員・2500""\n""土日・祝日料金 6000",YES,YES,YES,備考,https://www.instagram.com/,https://www.instagram.com/,,"男性あり;日帰りOK;フリータイム;ロウリュウ;レストラン;浴室内""\n""（シャンプー／ボディソープ 等）;現金"
,vmoimport0707.9995@gmail.com,vmoimport0707.9986,vmo,group 14,672-8064,東京都 日野市,東京都 日野市,東京都 日野市,21.02728615,105.8075721,1234567890,10:00 - 23:59,10:00 - 23:59,10:00 - 23:59,YES,YES,YES,YES,YES,YES,YES,YES,9/15,6000,"会員・2500""\n""土日・祝日料金 6000",YES,YES,YES,備考,https://www.instagram.com/,https://www.instagram.com/,,"男性あり;日帰りOK;フリータイム;ロウリュウ;レストラン;浴室内""\n""（シャンプー／ボディソープ 等）;現金"
,vmoimport0707.9994@gmail.com,vmoimport0707.9985,vmo,group 15,672-8064,東京都 日野市,東京都 日野市,東京都 日野市,21.02728615,105.8075721,1234567890,10:00 - 23:59,10:00 - 23:59,10:00 - 23:59,YES,YES,YES,YES,YES,YES,YES,YES,9/15,6000,"会員・2500""\n""土日・祝日料金 6000",YES,YES,YES,備考,https://www.instagram.com/,https://www.instagram.com/,,"男性あり;日帰りOK;フリータイム;ロウリュウ;レストラン;浴室内""\n""（シャンプー／ボディソープ 等）;現金"